digraph g31{
 node [shape = record,height=.1];
 3 [label="<f0>a|;"];
2 [label="1|<f1>c"];
10 [label="binary_num_list"];
1 [label="0|<f1>d"];
0 [label="0"];
7 [label="0|<f1>b"];
6 [label="0|<f1>a"];
5 [label="1"];
4 [label="binary_num"];
9 [label="<f0>binary_num_list|<f1>binary_num"];
8 [label="<f0>a|;"];
11 [label="parse"];
 4->3;
3:f0->2;
11->10;
2:f1->1;
1:f1->0;
9:f0->4;
8:f0->7;
7:f1->6;
6:f1->5;
10->9;
9:f1->8;
}