digraph g41{
 node [shape = record,height=.1];
 15 [label="var_def_list"];
16 [label="begin"];
13 [label="<f0>var_id_list|;"];
14 [label="var_def"];
11 [label="f"];
12 [label="<f0>var_type|,|<f2>var_id"];
3 [label="b"];
2 [label="<f0>var_type|<f1>var_id"];
1 [label="a"];
10 [label="<f0>var_type|,|<f2>var_id"];
0 [label="int"];
7 [label="d"];
6 [label="<f0>var_type|,|<f2>var_id"];
5 [label="c"];
4 [label="<f0>var_type|,|<f2>var_id"];
9 [label="e"];
8 [label="<f0>var_type|,|<f2>var_id"];
 16->15;
14->13;
15->14;
12:f2->11;
13:f0->12;
4:f2->3;
4:f0->2;
2:f1->1;
12:f0->10;
2:f0->0;
8:f2->7;
8:f0->6;
6:f2->5;
6:f0->4;
10:f2->9;
10:f0->8;
}